[
	{
      "name": "Peter Pen",
      "mail": "PeterPen@gmail.com",
      "topic": "Hello",
      "message": "My dear friend, I am Peter Pen and I am Happy!",
      "dataCreated": "20.06.2016 18:21",
      "letterRead": true,
      "letterType": "inbox",
      "inChecked": false,
      "inFavorite": true,
      "inImportant": false,
      "inAttached": false,
      "order": 1,
      "sendMail": ""
	},

	{
      "name": "Batman",
      "mail": "BatMan@gmail.com",
      "topic": "Hello",
      "message": "My dear friend, I am Batman and I am Happy!",
      "dataCreated": "20.07.2016 18:21",
      "letterRead": true,
      "letterType": "inbox",
      "inChecked": false,
      "inFavorite": false,
      "inImportant": false,
      "inAttached": false,
      "order": 2,
      "sendMail": ""
	},

	{
      "name": "Superman",
      "mail": "SuperMan@gmail.com",
      "topic": "Hello",
      "message": "My dear friend, I am Superman and I am Happy!",
      "dataCreated": "20.08.2016 18:21",
      "letterRead": false,
      "letterType": "inbox",
      "inChecked": false,
      "inFavorite": false,
      "inImportant": true,
      "inAttached": false,
      "order": 3,
      "sendMail": ""
	},

	{
      "name": "Spiderman",
      "mail": "SpiderMan@gmail.com",
      "topic": "Hello",
      "message": "My dear friend, I am Spiderman and I am Happy!",
      "dataCreated": "20.09.2016 18:21",
      "letterRead": false,
      "letterType": "inbox",
      "inChecked": false,
      "inFavorite": false,
      "inImportant": false,
      "inAttached": false,
      "order": 4,
      "sendMail": ""
	},

    {
      "name": "qqqqqqq",
      "mail": "Sdfd@gmail.com",
      "topic": "Spam",
      "message": "My dear friend, I am sdfsd and I am Happy!",
      "dataCreated": "20.10.2016 18:21",
      "letterRead": false,
      "letterType": "spam",
      "inChecked": false,
      "inFavorite": false,
      "inImportant": false,
      "inAttached": false,
      "order": 5,
      "sendMail": ""
    },
  {
    "name": "Peter Pen",
    "mail": "PeterPen@gmail.com",
    "topic": "Delete",
    "message": "My dear friend, I am Peter Pen and I am Happy!",
    "dataCreated": "20.06.2016 18:21",
    "letterRead": false,
    "letterType": "delete",
    "inChecked": false,
    "inFavorite": false,
    "inImportant": false,
    "inAttached": false,
    "order": 6,
    "sendMail": ""
  },

  {
    "name": "Batman",
    "mail": "BatMan@gmail.com",
    "topic": "Starred",
    "message": "My dear friend, I am Batman and I am Happy!",
    "dataCreated": "20.07.2016 18:21",
    "letterRead": false,
    "letterType": "inbox",
    "inChecked": false,
    "inFavorite": true,
    "inImportant": false,
    "inAttached": false,
    "order": 7,
    "sendMail": ""
  },

  {
    "name": "Superman",
    "mail": "SuperMan@gmail.com",
    "topic": "Important",
    "message": "My dear friend, I am Superman and I am Happy!My dear friend, I am Superman and I am Happy! My dear friend, I am Superman and I am Happy! My dear friend, I am Superman and I am Happy! My dear friend, I am Superman and I am Happy! My dear friend, I am Superman and I am Happy! My dear friend, I am Superman and I am Happy! My dear friend, I am Superman and I am Happy! My dear friend, I am Superman and I am Happy! My dear friend, I am Superman and I am Happy! My dear friend, I am Superman and I am Happy! My dear friend, I am Superman and I am Happy!",
    "dataCreated": "20.08.2016 18:21",
    "letterRead": false,
    "letterType": "sent",
    "inChecked": false,
    "inFavorite": false,
    "inImportant": true,
    "inAttached": false,
    "order": 8,
    "sendMail": ""
  },

  {
    "name": "Spiderman",
    "mail": "SpiderMan@gmail.com",
    "topic": "Drafts",
    "message": "My dear friend, I am Spiderman and I am Happy!",
    "dataCreated": "20.09.2016 18:21",
    "letterRead": false,
    "letterType": "drafts",
    "inChecked": false,
    "inFavorite": false,
    "inImportant": false,
    "inAttached": false,
    "order": 9,
    "sendMail": ""
  },

  {
    "name": "qqqqqqq",
    "mail": "Sdfd@gmail.com",
    "topic": "Sent",
    "message": "My dear friend, I am sdfsd and I am Happy!",
    "dataCreated": "20.10.2016 18:21",
    "letterRead": false,
    "letterType": "sent",
    "inChecked": false,
    "inFavorite": false,
    "inImportant": false,
    "inAttached": false,
    "order": 10,
    "sendMail": ""
  }

]